﻿name,attr1,attr2
Acrobatics,Cunning,none
Animal Handling,Moxie,Grit
Armorer,BrainPower,none
Blacksmithing,BrainPower,Brawn
Bluff,Moxie,none
Bows,Grit,Ballistics
Cartography,BrainPower,none
Communications,BrainPower,Moxie
Computers,BrainPower,none
Cooking and Brewing,BrainPower,none
CQB Expertise,Cunning,Brawn
Crafting,BrainPower,Grit
Demolitions,Grit,BrainPower
Driving,BrainPower,Brawn
Healing,Moxie,BrainPower
Heavy Weapons,Brawn,Grit
History,BrainPower,none
Intimidate,Moxie,Grit
Investigation,Cunning,Moxie
Language,Moxie,BrainPower
Machine Guns,Ballistics,Brawn
Magical Aptitude,Moxie,BrainPower
Market Sense,Moxie,none
Marksmanship,Ballistics,none
Mechanical,Ballistics,BrainPower
Medical,Moxie,BrainPower
Modern Knowledge,BrainPower,none
Navigation,Cunning,BrainPower
Perception,Cunning,BrainPower
Performance,Cunning,none
Persuasion,Moxie,none
Pilot,Cunning,Moxie
Pistol,Cunning,none
Riding,Grit,Moxie
Rifles,Ballistics,none
SERE,Cunning,Grit
Shotguns,Brawn,Cunning
Sleight of Hand,Cunning,none
Sniper Rifle,Ballistics,none
Spell Craft,Cunning,BrainPower
Stealth,Cunning,none
Submachine Guns,Moxie,none
Supply,Moxie,none
Throwables,Cunning,Brawn
Tracking,Cunning,none
